នេះគឺជា mini project មួយដែលក្រុមខ្ញុំបានធ្វើដែលវាធ្វើការទាក់ទងជាមួយ stock management
នៅក្នុង project នេះដែលគឺយើងមាន Menu មួយចំនួនឲយើងធ្វើការជ្រើសរើស
--------------------------------------------------------------------------------------------
1. Key * 
//យើងប្រើដើម្បីធ្វើការDisplay  ទិន្នន័យ ទៅតាម page នីមួយៗ

2. Key “W“ 
//ប្រើដើម្បីធ្វើការ write ទិន្នន័យ ដូចនេះនៅពេលដែលយើងចុចវា វានឹងបញ្ចេញទិន្នន័យ 
ឲយើងបញ្ចូល ដែលមានដូចជា ID (ជាលេខស្វ័យប្រវិត្ត) Name Price(ទៀមទាញឲយើង
បញ្ចូលជាលេខ ប្រសិនខុសពីលេខ វានឹងចេញ mess មួយគឺ Inpu is neagtive number)
Qty and Imported Date.(ទាញចេញពីម៉ាស៊ីនរបស់យើង)នៅពេលយើងបញ្ចូលរួច វានឹង 
ចេញអក្សរមួយជួរថា តើយើងចង់ save or not [Y/y] or[N/n]

3. Key “R“  
//ប្រើដើម្បី Read data or display ទិន្នន័យដែលយើងចង់បង្ហាញ ទៅតាម ID

4. Key “U”
//ប្រើដើម្បីធ្វើការ កែប្រែទិន្នន័យ ដែលយើងធ្វើការកែទៅតាម ID  ដូច្នោះនៅពេលយើងបញ្ចូល ID 
ដែលយើងចង់កែប្រែ វានឹងបញ្ចេញ  ទិន្នន័យរបស់វាមក នៅក្នុងតារាងមួយ ។ ហើយវាមាន Menu 5 
ដើម្បីឲយើងរើសដូចជា៖ All កែប្រែ ទាំងអស់ លើកលែងID 
+ Name កែប្រែតែឈ្មោះ
+ Qty កែប្រែចំនួន
+ price កែប្រែ តម្លែ
+ back to menu

5. Key”D” ប្រើដើម្បីធ្វើការលុបទិន្នន័យ ទៅតាមID  ហើយវានឹងបង្ហាញទិន្ន័យដែលយើងចង់លុប ។
//ហើយវាសួរយើងថា [Y/y] or [N/n] ប្រសិនយើង ចុច Y /y វានឹងធ្វើការលុបទិន្នន័យ

6. Key “F“ 
//ប្រើដើម្បីបង្ហាញទិន្នន័យនៅ page ទីមួយ 

7. Key “N“ 
//ប្រើដើម្បីបង្ហាញទិន្នន័យនៅ page បន្តបន្ទាប់

8. Key “P“ 
//ប្រើបកក្រោយ page ម្ដងមួយៗ

9. Key “L “ 
//ប្រើដើម្បីបង្ហាញទិន្នន័យនៅ page ចុងក្រោយគេ

10. Key "S" 
//used to search a product by the name from file

11. Key "Se"
//used to set row to product and read file product

12. Key "G"
//used to goto speacific page or another page

13. Key "Sa"
//used to save product in to file by read file

14. _10M
//used to save 10M product records to file 

14. Key "H" - (not completed)
//used to show menu help in project and descreaption menu

14. Key "E"
//used to exit from menu